Extras - Recipes – Machine learning with tidymodels
…
forested_train
#> # A tibble: 5,685 × 19
#>    forested  year elevation eastness northness roughness tree_no_tree dew_temp precip_annual temp_annual_mean temp_annual_min temp_annual_max temp_january_min vapor_min vapor_max canopy_cover   lon
#>    <fct>    <dbl>     <dbl>    <dbl>     <dbl>     <dbl> <fct>           <dbl>         <dbl>            <dbl>           <dbl>           <dbl>            <dbl>     <dbl>     <dbl>        <dbl> <dbl>
#>  1 No        2005       164      -84        53        13 Tree              606          1297             1007              19            1442              572        49       754           47 -122.
#>  2 No        2005      1713      -66        75       227 No tree          -259          2568              364            -567             753              -26       138       596           21 -121.
#>  3 No        2014       542      -32       -94        19 No tree           175           282              939            -425            1602              276       143      1490            0 -118.
#>  4 No        2014       759       -2       -99        16 No tree            32           293              810            -661            1411              211       178      1332            0 -119.
#>  5 No        2014       119        0         0         0 No tree           302           196             1237            -251            1890              584       297      1934            3 -120.
#>  6 No        2014       246       22       -97         5 Tree              241           195             1136            -352            1796              478       272      1820            1 -120.
#>  7 No        2014       235        0      -100         1 Tree              267           194             1167            -315            1806              528       312      1782           12 -120.
#>  8 No        2014       324       71        70        51 No tree           300           343             1143            -210            1781              505       225      1682            0 -118.
#>  9 No        2014       419       86       -49         5 No tree           187           223              992            -421            1634              350       192      1537            1 -119.
#> 10 No        2014       308      -70       -70         4 No tree           307           233             1111            -235            1749              473       189      1619            0 -120.
#> # ℹ 5,675 more rows
#> # ℹ 2 more variables: lat <dbl>, land_type <fct>
…
Baking a recipe

prep(forested_rec) %>%
  bake(new_data = forested_train)
#> # A tibble: 5,685 × 20
#>      year elevation eastness northness roughness dew_temp precip_annual temp_annual_mean temp_annual_min temp_annual_max temp_january_min vapor_min vapor_max canopy_cover    lon    lat forested
#>     <dbl>     <dbl>    <dbl>     <dbl>     <dbl>    <dbl>         <dbl>            <dbl>           <dbl>           <dbl>            <dbl>     <dbl>     <dbl>        <dbl>  <dbl>  <dbl> <fct>   
#>  1 -3.19     -1.08   -1.16      0.795    -0.736    1.37           0.146            0.659          1.09            0.185             1.17    -1.16      -1.00       0.693   -0.968  1.60  No      
#>  2 -3.19      2.15   -0.904     1.11      3.83    -1.68           1.40            -2.04          -0.792          -2.26             -1.50     0.0383    -1.45       0.277   -0.426  1.68  No      
#>  3 -0.416    -0.290  -0.412    -1.30     -0.608   -0.149         -0.854            0.374         -0.336           0.753            -0.153    0.106      1.07      -1.70     1.02  -0.407 No      
#>  4 -0.416     0.162   0.0218   -1.38     -0.672   -0.653         -0.843           -0.168         -1.09            0.0748           -0.443    0.577      0.625     -1.70     0.557  0.411 No      
#>  5 -0.416    -1.17    0.0507    0.0378   -1.01     0.298         -0.939            1.62           0.222           1.78              1.22     2.18       2.32      -0.676    0.452 -0.714 No      
#>  6 -0.416    -0.906   0.369    -1.35     -0.906    0.0833        -0.940            1.20          -0.102           1.44              0.749    1.84       2.00      -1.12     0.358 -0.671 No      
#>  7 -0.416    -0.929   0.0507   -1.39     -0.992    0.175         -0.941            1.33           0.0165          1.48              0.972    2.38       1.89      -0.00788  0.278 -0.729 No      
#>  8 -0.416    -0.744   1.08      1.04      0.0753   0.291         -0.794            1.23           0.353           1.39              0.869    1.21       1.61      -1.70     1.08  -0.953 No      
#>  9 -0.416    -0.546   1.29     -0.662    -0.906   -0.107         -0.912            0.596         -0.323           0.867             0.177    0.765      1.20      -1.12     0.684 -0.267 No      
#> 10 -0.416    -0.777  -0.962    -0.962    -0.928    0.316         -0.903            1.10           0.273           1.28              0.727    0.725      1.43      -1.70     0.409 -1.40  No      
#> # ℹ 5,675 more rows
#> # ℹ 3 more variables: tree_no_tree_No.tree <dbl>, land_type_Non.tree.vegetation <dbl>, land_type_Tree <dbl>
…
